%YAML 1.1
%TAG !u! tag:unity3d.com,2011:
--- !u!74 &7400000
AnimationClip:
  m_ObjectHideFlags: 0
  m_CorrespondingSourceObject: {fileID: 0}
  m_PrefabInstance: {fileID: 0}
  m_PrefabAsset: {fileID: 0}
  m_Name: attack
  serializedVersion: 6
  m_Legacy: 0
  m_Compressed: 0
  m_UseHighQualityCurve: 1
  m_RotationCurves: []
  m_CompressedRotationCurves: []
  m_EulerCurves: []
  m_PositionCurves: []
  m_ScaleCurves: []
  m_FloatCurves: []
  m_PPtrCurves:
  - curve:
    - time: 0
      value: {fileID: 21300000, guid: 4004238791e598545824b680270bd00a, type: 3}
    - time: 0.083333336
      value: {fileID: 21300000, guid: 315e908145c8c4144b780e6f4e495fb9, type: 3}
    - time: 0.16666667
      value: {fileID: 21300000, guid: 113b0f77900f6454c99a0b1090f29bf7, type: 3}
    - time: 0.25
      value: {fileID: 21300000, guid: 8e394603be4b99a41b29c3febac7ce75, type: 3}
    - time: 0.33333334
      value: {fileID: 21300000, guid: 2c238fa6ea770084f87b2c5d3d72bb76, type: 3}
    - time: 0.41666666
      value: {fileID: 21300000, guid: cbe7a40fee87421469c61f25610feb6f, type: 3}
    - time: 0.5
      value: {fileID: 21300000, guid: 42c5feab95128b948947d488d6bdee76, type: 3}
    - time: 0.5833333
      value: {fileID: 21300000, guid: bae15850bb45e294dad0792dc3e73e85, type: 3}
    - time: 0.6666667
      value: {fileID: 21300000, guid: 08ef13712679b404db041834388edaff, type: 3}
    - time: 0.75
      value: {fileID: 21300000, guid: 0e772da7000430f4b8220b0433ce80ff, type: 3}
    - time: 0.8333333
      value: {fileID: 21300000, guid: 90df47b0139d4d440b938b8a4e88b189, type: 3}
    - time: 0.9166667
      value: {fileID: 21300000, guid: 3f391b139abc93e4c9056ba9c54dec98, type: 3}
    - time: 1
      value: {fileID: 21300000, guid: 4d34ea46c3732e54d8a747b4bf64fecd, type: 3}
    attribute: m_Sprite
    path: 
    classID: 212
    script: {fileID: 0}
  m_SampleRate: 12
  m_WrapMode: 0
  m_Bounds:
    m_Center: {x: 0, y: 0, z: 0}
    m_Extent: {x: 0, y: 0, z: 0}
  m_ClipBindingConstant:
    genericBindings:
    - serializedVersion: 2
      path: 0
      attribute: 0
      script: {fileID: 0}
      typeID: 212
      customType: 23
      isPPtrCurve: 1
    pptrCurveMapping:
    - {fileID: 21300000, guid: 4004238791e598545824b680270bd00a, type: 3}
    - {fileID: 21300000, guid: 315e908145c8c4144b780e6f4e495fb9, type: 3}
    - {fileID: 21300000, guid: 113b0f77900f6454c99a0b1090f29bf7, type: 3}
    - {fileID: 21300000, guid: 8e394603be4b99a41b29c3febac7ce75, type: 3}
    - {fileID: 21300000, guid: 2c238fa6ea770084f87b2c5d3d72bb76, type: 3}
    - {fileID: 21300000, guid: cbe7a40fee87421469c61f25610feb6f, type: 3}
    - {fileID: 21300000, guid: 42c5feab95128b948947d488d6bdee76, type: 3}
    - {fileID: 21300000, guid: bae15850bb45e294dad0792dc3e73e85, type: 3}
    - {fileID: 21300000, guid: 08ef13712679b404db041834388edaff, type: 3}
    - {fileID: 21300000, guid: 0e772da7000430f4b8220b0433ce80ff, type: 3}
    - {fileID: 21300000, guid: 90df47b0139d4d440b938b8a4e88b189, type: 3}
    - {fileID: 21300000, guid: 3f391b139abc93e4c9056ba9c54dec98, type: 3}
    - {fileID: 21300000, guid: 4d34ea46c3732e54d8a747b4bf64fecd, type: 3}
  m_AnimationClipSettings:
    serializedVersion: 2
    m_AdditiveReferencePoseClip: {fileID: 0}
    m_AdditiveReferencePoseTime: 0
    m_StartTime: 0
    m_StopTime: 1.0833334
    m_OrientationOffsetY: 0
    m_Level: 0
    m_CycleOffset: 0
    m_HasAdditiveReferencePose: 0
    m_LoopTime: 0
    m_LoopBlend: 0
    m_LoopBlendOrientation: 0
    m_LoopBlendPositionY: 0
    m_LoopBlendPositionXZ: 0
    m_KeepOriginalOrientation: 0
    m_KeepOriginalPositionY: 1
    m_KeepOriginalPositionXZ: 0
    m_HeightFromFeet: 0
    m_Mirror: 0
  m_EditorCurves: []
  m_EulerEditorCurves: []
  m_HasGenericRootTransform: 0
  m_HasMotionFloatCurves: 0
  m_Events: []
