%YAML 1.1
%TAG !u! tag:unity3d.com,2011:
--- !u!74 &7400000
AnimationClip:
  m_ObjectHideFlags: 0
  m_CorrespondingSourceObject: {fileID: 0}
  m_PrefabInstance: {fileID: 0}
  m_PrefabAsset: {fileID: 0}
  m_Name: jump
  serializedVersion: 6
  m_Legacy: 0
  m_Compressed: 0
  m_UseHighQualityCurve: 1
  m_RotationCurves: []
  m_CompressedRotationCurves: []
  m_EulerCurves: []
  m_PositionCurves: []
  m_ScaleCurves: []
  m_FloatCurves: []
  m_PPtrCurves:
  - curve:
    - time: 0
      value: {fileID: 21300000, guid: b0f8560838fe52c4f95e254ee29124c3, type: 3}
    - time: 0.083333336
      value: {fileID: 21300000, guid: fb954ab346b1e33488f8ba28eddfd7c0, type: 3}
    - time: 0.16666667
      value: {fileID: 21300000, guid: 126e0f3f6d1bf4847b31484e57f5534a, type: 3}
    - time: 0.25
      value: {fileID: 21300000, guid: cd4694b4ec6b3364e9275e4d449baf9e, type: 3}
    - time: 0.33333334
      value: {fileID: 21300000, guid: 67739ab345d22b142af91d5a621dde56, type: 3}
    - time: 0.41666666
      value: {fileID: 21300000, guid: 9649a1561e05fee4bb83ed5f8e639f6c, type: 3}
    - time: 0.5
      value: {fileID: 21300000, guid: 1b7eb82ab332d1145a737efe85ffcfab, type: 3}
    - time: 0.5833333
      value: {fileID: 21300000, guid: fc5b59f3e6a890b408c617b6f745c880, type: 3}
    - time: 0.6666667
      value: {fileID: 21300000, guid: 386d1a26a50cd964f86d8cc1c6b80f4a, type: 3}
    - time: 0.75
      value: {fileID: 21300000, guid: 85a0fbb07eea28d42bf165b64181b301, type: 3}
    - time: 0.8333333
      value: {fileID: 21300000, guid: d425ea23e84cdb2408ec9a9f0c37c07c, type: 3}
    - time: 0.9166667
      value: {fileID: 21300000, guid: cc9270ddefa8e1441aa12fe11b558985, type: 3}
    - time: 1
      value: {fileID: 21300000, guid: be76e775e1050e746aca206cfea1ba1c, type: 3}
    - time: 1.0833334
      value: {fileID: 21300000, guid: 0b093a82c127c734ebe1892d62a1865f, type: 3}
    attribute: m_Sprite
    path: 
    classID: 212
    script: {fileID: 0}
  m_SampleRate: 12
  m_WrapMode: 0
  m_Bounds:
    m_Center: {x: 0, y: 0, z: 0}
    m_Extent: {x: 0, y: 0, z: 0}
  m_ClipBindingConstant:
    genericBindings:
    - serializedVersion: 2
      path: 0
      attribute: 0
      script: {fileID: 0}
      typeID: 212
      customType: 23
      isPPtrCurve: 1
    pptrCurveMapping:
    - {fileID: 21300000, guid: b0f8560838fe52c4f95e254ee29124c3, type: 3}
    - {fileID: 21300000, guid: fb954ab346b1e33488f8ba28eddfd7c0, type: 3}
    - {fileID: 21300000, guid: 126e0f3f6d1bf4847b31484e57f5534a, type: 3}
    - {fileID: 21300000, guid: cd4694b4ec6b3364e9275e4d449baf9e, type: 3}
    - {fileID: 21300000, guid: 67739ab345d22b142af91d5a621dde56, type: 3}
    - {fileID: 21300000, guid: 9649a1561e05fee4bb83ed5f8e639f6c, type: 3}
    - {fileID: 21300000, guid: 1b7eb82ab332d1145a737efe85ffcfab, type: 3}
    - {fileID: 21300000, guid: fc5b59f3e6a890b408c617b6f745c880, type: 3}
    - {fileID: 21300000, guid: 386d1a26a50cd964f86d8cc1c6b80f4a, type: 3}
    - {fileID: 21300000, guid: 85a0fbb07eea28d42bf165b64181b301, type: 3}
    - {fileID: 21300000, guid: d425ea23e84cdb2408ec9a9f0c37c07c, type: 3}
    - {fileID: 21300000, guid: cc9270ddefa8e1441aa12fe11b558985, type: 3}
    - {fileID: 21300000, guid: be76e775e1050e746aca206cfea1ba1c, type: 3}
    - {fileID: 21300000, guid: 0b093a82c127c734ebe1892d62a1865f, type: 3}
  m_AnimationClipSettings:
    serializedVersion: 2
    m_AdditiveReferencePoseClip: {fileID: 0}
    m_AdditiveReferencePoseTime: 0
    m_StartTime: 0
    m_StopTime: 1.1666667
    m_OrientationOffsetY: 0
    m_Level: 0
    m_CycleOffset: 0
    m_HasAdditiveReferencePose: 0
    m_LoopTime: 0
    m_LoopBlend: 0
    m_LoopBlendOrientation: 0
    m_LoopBlendPositionY: 0
    m_LoopBlendPositionXZ: 0
    m_KeepOriginalOrientation: 0
    m_KeepOriginalPositionY: 1
    m_KeepOriginalPositionXZ: 0
    m_HeightFromFeet: 0
    m_Mirror: 0
  m_EditorCurves: []
  m_EulerEditorCurves: []
  m_HasGenericRootTransform: 0
  m_HasMotionFloatCurves: 0
  m_Events: []
