%YAML 1.1
%TAG !u! tag:unity3d.com,2011:
--- !u!74 &7400000
AnimationClip:
  m_ObjectHideFlags: 0
  m_CorrespondingSourceObject: {fileID: 0}
  m_PrefabInstance: {fileID: 0}
  m_PrefabAsset: {fileID: 0}
  m_Name: dead
  serializedVersion: 6
  m_Legacy: 0
  m_Compressed: 0
  m_UseHighQualityCurve: 1
  m_RotationCurves: []
  m_CompressedRotationCurves: []
  m_EulerCurves: []
  m_PositionCurves: []
  m_ScaleCurves: []
  m_FloatCurves: []
  m_PPtrCurves:
  - curve:
    - time: 0
      value: {fileID: 21300000, guid: 81ca9c4bfa644c944ae6ef53a2201494, type: 3}
    - time: 0.083333336
      value: {fileID: 21300000, guid: 42c2cb20e022abc43aff2b22e559c3a5, type: 3}
    - time: 0.16666667
      value: {fileID: 21300000, guid: 1acc8ae8b6013c14cbf203cfa9d282a0, type: 3}
    - time: 0.25
      value: {fileID: 21300000, guid: fa987ccfd5a6a104eb59f4098266a33f, type: 3}
    - time: 0.33333334
      value: {fileID: 21300000, guid: b22647a72c728f141a7a65f7b3f920d6, type: 3}
    - time: 0.41666666
      value: {fileID: 21300000, guid: a08a7140612f2f644902634f6aa4f560, type: 3}
    - time: 0.5
      value: {fileID: 21300000, guid: 29d2b5c5cbdd4dc40958638fc9ca10c6, type: 3}
    - time: 0.5833333
      value: {fileID: 21300000, guid: c35095309224c2149a9814d2d04b11ca, type: 3}
    - time: 0.6666667
      value: {fileID: 21300000, guid: ac5e8041ac72ef8429b301a3c4be2eea, type: 3}
    - time: 0.75
      value: {fileID: 21300000, guid: 05f2e328539960f4785175b848f966fc, type: 3}
    - time: 0.8333333
      value: {fileID: 21300000, guid: 869ab6ac82e746d4c9994a426adc6f78, type: 3}
    - time: 0.9166667
      value: {fileID: 21300000, guid: 534abdc2e7d1aa244bb800c9f42b51e8, type: 3}
    - time: 1
      value: {fileID: 21300000, guid: 35adb7545eaf805429dfa5ae4e77c15f, type: 3}
    - time: 1.0833334
      value: {fileID: 21300000, guid: 7081c43e9bf486e44921ee2c90e2d94b, type: 3}
    - time: 1.1666666
      value: {fileID: 21300000, guid: 1c9bef8e82a030242b1bebef619dc5e6, type: 3}
    - time: 1.25
      value: {fileID: 21300000, guid: a9a142320de5535409108d0beab4c25f, type: 3}
    - time: 1.3333334
      value: {fileID: 21300000, guid: 3d24d79c4d8d73f45b027bec8891bdeb, type: 3}
    - time: 1.4166666
      value: {fileID: 21300000, guid: 61ad33d9b67f582489cd932f6fc968e3, type: 3}
    - time: 1.5
      value: {fileID: 21300000, guid: 84d3a4742a320274bab2e37461065462, type: 3}
    - time: 1.5833334
      value: {fileID: 21300000, guid: da8815bd7ce07ff4fb765ea75273e034, type: 3}
    - time: 1.6666666
      value: {fileID: 21300000, guid: 2aa2e31083244794f955fd1b08ba6768, type: 3}
    - time: 1.75
      value: {fileID: 21300000, guid: 4d625949ee2d1614bbdb20f2ce603273, type: 3}
    - time: 1.8333334
      value: {fileID: 21300000, guid: 981f081ded35cbf43b53eaf1d2d849f0, type: 3}
    - time: 1.9166666
      value: {fileID: 21300000, guid: 01d2e337232544e40b767f054e8fe3e5, type: 3}
    - time: 2
      value: {fileID: 21300000, guid: 600d733853cbfd24a9788211bc129284, type: 3}
    - time: 2.0833333
      value: {fileID: 21300000, guid: 1165a7ee5444113468ce95382c7ba3dc, type: 3}
    attribute: m_Sprite
    path: 
    classID: 212
    script: {fileID: 0}
  m_SampleRate: 12
  m_WrapMode: 0
  m_Bounds:
    m_Center: {x: 0, y: 0, z: 0}
    m_Extent: {x: 0, y: 0, z: 0}
  m_ClipBindingConstant:
    genericBindings:
    - serializedVersion: 2
      path: 0
      attribute: 0
      script: {fileID: 0}
      typeID: 212
      customType: 23
      isPPtrCurve: 1
    pptrCurveMapping:
    - {fileID: 21300000, guid: 81ca9c4bfa644c944ae6ef53a2201494, type: 3}
    - {fileID: 21300000, guid: 42c2cb20e022abc43aff2b22e559c3a5, type: 3}
    - {fileID: 21300000, guid: 1acc8ae8b6013c14cbf203cfa9d282a0, type: 3}
    - {fileID: 21300000, guid: fa987ccfd5a6a104eb59f4098266a33f, type: 3}
    - {fileID: 21300000, guid: b22647a72c728f141a7a65f7b3f920d6, type: 3}
    - {fileID: 21300000, guid: a08a7140612f2f644902634f6aa4f560, type: 3}
    - {fileID: 21300000, guid: 29d2b5c5cbdd4dc40958638fc9ca10c6, type: 3}
    - {fileID: 21300000, guid: c35095309224c2149a9814d2d04b11ca, type: 3}
    - {fileID: 21300000, guid: ac5e8041ac72ef8429b301a3c4be2eea, type: 3}
    - {fileID: 21300000, guid: 05f2e328539960f4785175b848f966fc, type: 3}
    - {fileID: 21300000, guid: 869ab6ac82e746d4c9994a426adc6f78, type: 3}
    - {fileID: 21300000, guid: 534abdc2e7d1aa244bb800c9f42b51e8, type: 3}
    - {fileID: 21300000, guid: 35adb7545eaf805429dfa5ae4e77c15f, type: 3}
    - {fileID: 21300000, guid: 7081c43e9bf486e44921ee2c90e2d94b, type: 3}
    - {fileID: 21300000, guid: 1c9bef8e82a030242b1bebef619dc5e6, type: 3}
    - {fileID: 21300000, guid: a9a142320de5535409108d0beab4c25f, type: 3}
    - {fileID: 21300000, guid: 3d24d79c4d8d73f45b027bec8891bdeb, type: 3}
    - {fileID: 21300000, guid: 61ad33d9b67f582489cd932f6fc968e3, type: 3}
    - {fileID: 21300000, guid: 84d3a4742a320274bab2e37461065462, type: 3}
    - {fileID: 21300000, guid: da8815bd7ce07ff4fb765ea75273e034, type: 3}
    - {fileID: 21300000, guid: 2aa2e31083244794f955fd1b08ba6768, type: 3}
    - {fileID: 21300000, guid: 4d625949ee2d1614bbdb20f2ce603273, type: 3}
    - {fileID: 21300000, guid: 981f081ded35cbf43b53eaf1d2d849f0, type: 3}
    - {fileID: 21300000, guid: 01d2e337232544e40b767f054e8fe3e5, type: 3}
    - {fileID: 21300000, guid: 600d733853cbfd24a9788211bc129284, type: 3}
    - {fileID: 21300000, guid: 1165a7ee5444113468ce95382c7ba3dc, type: 3}
  m_AnimationClipSettings:
    serializedVersion: 2
    m_AdditiveReferencePoseClip: {fileID: 0}
    m_AdditiveReferencePoseTime: 0
    m_StartTime: 0
    m_StopTime: 2.1666665
    m_OrientationOffsetY: 0
    m_Level: 0
    m_CycleOffset: 0
    m_HasAdditiveReferencePose: 0
    m_LoopTime: 0
    m_LoopBlend: 0
    m_LoopBlendOrientation: 0
    m_LoopBlendPositionY: 0
    m_LoopBlendPositionXZ: 0
    m_KeepOriginalOrientation: 0
    m_KeepOriginalPositionY: 1
    m_KeepOriginalPositionXZ: 0
    m_HeightFromFeet: 0
    m_Mirror: 0
  m_EditorCurves: []
  m_EulerEditorCurves: []
  m_HasGenericRootTransform: 0
  m_HasMotionFloatCurves: 0
  m_Events: []
