%YAML 1.1
%TAG !u! tag:unity3d.com,2011:
--- !u!74 &7400000
AnimationClip:
  m_ObjectHideFlags: 0
  m_CorrespondingSourceObject: {fileID: 0}
  m_PrefabInstance: {fileID: 0}
  m_PrefabAsset: {fileID: 0}
  m_Name: jump
  serializedVersion: 6
  m_Legacy: 0
  m_Compressed: 0
  m_UseHighQualityCurve: 1
  m_RotationCurves: []
  m_CompressedRotationCurves: []
  m_EulerCurves: []
  m_PositionCurves: []
  m_ScaleCurves: []
  m_FloatCurves: []
  m_PPtrCurves:
  - curve:
    - time: 0
      value: {fileID: 21300000, guid: 6cba4ce4394fc364c8e30f12870afbbf, type: 3}
    - time: 0.083333336
      value: {fileID: 21300000, guid: 8b14276bc08231449a9863eb45db8e8c, type: 3}
    - time: 0.16666667
      value: {fileID: 21300000, guid: ada3d53001563f94a9e9651a329680f1, type: 3}
    - time: 0.25
      value: {fileID: 21300000, guid: 6575af3c75f6c624885a4942b4912927, type: 3}
    - time: 0.33333334
      value: {fileID: 21300000, guid: 7ad2a83071065dd45a3e76173c2149cd, type: 3}
    - time: 0.41666666
      value: {fileID: 21300000, guid: 82834fedc13dc244ba31d3eacfeb2da0, type: 3}
    - time: 0.5
      value: {fileID: 21300000, guid: 487b47305dcdd5a41bea1e4e29416eea, type: 3}
    - time: 0.5833333
      value: {fileID: 21300000, guid: 734624061ae1b4d409374bc02a31caeb, type: 3}
    - time: 0.6666667
      value: {fileID: 21300000, guid: 5da8092a699bc1841bea597361a350e2, type: 3}
    - time: 0.75
      value: {fileID: 21300000, guid: 10007eeafa4d3aa4e90d105313abb029, type: 3}
    - time: 0.8333333
      value: {fileID: 21300000, guid: 6202755ed3bea6444b823995ae778a66, type: 3}
    - time: 0.9166667
      value: {fileID: 21300000, guid: f2fc721370976984585df8ebceae6c31, type: 3}
    - time: 1
      value: {fileID: 21300000, guid: 75ea8e7ab01710d458c49f376b5c52a7, type: 3}
    - time: 1.0833334
      value: {fileID: 21300000, guid: 8d5c92c679267644db876f9708477808, type: 3}
    attribute: m_Sprite
    path: 
    classID: 212
    script: {fileID: 0}
  m_SampleRate: 12
  m_WrapMode: 0
  m_Bounds:
    m_Center: {x: 0, y: 0, z: 0}
    m_Extent: {x: 0, y: 0, z: 0}
  m_ClipBindingConstant:
    genericBindings:
    - serializedVersion: 2
      path: 0
      attribute: 0
      script: {fileID: 0}
      typeID: 212
      customType: 23
      isPPtrCurve: 1
    pptrCurveMapping:
    - {fileID: 21300000, guid: 6cba4ce4394fc364c8e30f12870afbbf, type: 3}
    - {fileID: 21300000, guid: 8b14276bc08231449a9863eb45db8e8c, type: 3}
    - {fileID: 21300000, guid: ada3d53001563f94a9e9651a329680f1, type: 3}
    - {fileID: 21300000, guid: 6575af3c75f6c624885a4942b4912927, type: 3}
    - {fileID: 21300000, guid: 7ad2a83071065dd45a3e76173c2149cd, type: 3}
    - {fileID: 21300000, guid: 82834fedc13dc244ba31d3eacfeb2da0, type: 3}
    - {fileID: 21300000, guid: 487b47305dcdd5a41bea1e4e29416eea, type: 3}
    - {fileID: 21300000, guid: 734624061ae1b4d409374bc02a31caeb, type: 3}
    - {fileID: 21300000, guid: 5da8092a699bc1841bea597361a350e2, type: 3}
    - {fileID: 21300000, guid: 10007eeafa4d3aa4e90d105313abb029, type: 3}
    - {fileID: 21300000, guid: 6202755ed3bea6444b823995ae778a66, type: 3}
    - {fileID: 21300000, guid: f2fc721370976984585df8ebceae6c31, type: 3}
    - {fileID: 21300000, guid: 75ea8e7ab01710d458c49f376b5c52a7, type: 3}
    - {fileID: 21300000, guid: 8d5c92c679267644db876f9708477808, type: 3}
  m_AnimationClipSettings:
    serializedVersion: 2
    m_AdditiveReferencePoseClip: {fileID: 0}
    m_AdditiveReferencePoseTime: 0
    m_StartTime: 0
    m_StopTime: 1.1666667
    m_OrientationOffsetY: 0
    m_Level: 0
    m_CycleOffset: 0
    m_HasAdditiveReferencePose: 0
    m_LoopTime: 0
    m_LoopBlend: 0
    m_LoopBlendOrientation: 0
    m_LoopBlendPositionY: 0
    m_LoopBlendPositionXZ: 0
    m_KeepOriginalOrientation: 0
    m_KeepOriginalPositionY: 1
    m_KeepOriginalPositionXZ: 0
    m_HeightFromFeet: 0
    m_Mirror: 0
  m_EditorCurves: []
  m_EulerEditorCurves: []
  m_HasGenericRootTransform: 0
  m_HasMotionFloatCurves: 0
  m_Events: []
